
Options ResourceUsage=yes UseNutmegFormat=no EnableOptim=no TopDesignName="HB_DCA_lib:SISO_BLA_DCA_confirm_twostage:schematic"

Ibias=100u
#define TT TT
#ifndef inc_Z__UMC_180_models_umc18config_net
#define inc_Z__UMC_180_models_umc18config_net inc_Z__UMC_180_models_umc18config_net
#include "Z:\UMC_180\models\umc18config.net"
#endif
#undef TT
#uselib "ckt" , "VCVS"
VCVS:SRC22  N__3 0 N__19 0 G=1 T=0.0 nsec R1=1e100 Ohm R2=0 Ohm F=0.0 GHz 
R:R1  amp out R=10 kOhm Noise=yes 
R:R2  ref amp R=5 kOhm Noise=yes 

Wp=50u
"p_18_mm":MOSFET10  N__18 N__18 N__23 N__23 Length=1 um Width=Wp Mode=1 Noise=yes 
Short:DC_Block1  N__19 out Mode=1 
I_Source:SRC20  N__18 0 Type="I_DC" Idc=Ibias 
V_Source:SRC19  N__23 0 Type="V_DC" Vdc=1.8 V SaveCurrent=0 
#uselib "ckt" , "VCCS"
VCCS:SRC26  amp 0 N__25 N__4 G=0.0005 T=0.0 nsec R1=1e100 Ohm R2=1e100 Ohm F=0.0 GHz 
C:C2  amp out C=10 pF 
"n_18_mm":MOSFET7  N__3 inte 0 0 Length=1 um Width=Wp/3 Mode=1 Noise=yes _M=10 
"n_18_mm":MOSFET8  N__4 N__4 0 0 Length=1 um Width=Wp/3 Mode=1 Noise=yes 
"p_18_mm":MOSFET9  N__3 N__18 N__23 N__23 Length=1 um Width=Wp Mode=1 Noise=yes _M=10 
V_Source:SRC27  N__25 0 Type="V_DC" Vdc=1.8 V SaveCurrent=0 
I_Source:SRC28  N__25 N__4 Type="I_DC" Idc=Ibias 
#uselib "ckt" , "VCVS"
VCVS:SRC21  N__4 0 inte 0 G=1 T=0.0 nsec R1=1e100 Ohm R2=0 Ohm F=0.0 GHz 
C:C3  N__3 0 C=4 pF 
