define StageInterface ( N__4  N__5 ) 
parameters  P1=1  P2=2  Zref=50 
Short:FEED  N__4 N__5 Mode=-1 

Short:BLOCK1  N__4 N__2 Mode=1 
Port:Term1  N__2 0 Num=P1 Z=Zref Noise=yes 

Short:BLOCK2  N__5 N__3 Mode=1 
Port:Term2  N__3 0 Num=P2 Z=Zref Noise=yes 
end StageInterface

define OutsideInterface ( N__6  N__7 ) 
parameters  P1=1  Zref=50 
Short:FEED  N__6 N__7 Mode=-1 
Short:BLOCK  N__7 N__2 Mode=1 
Port:Term  N__2 0 Num=P1 Z=Zref Noise=yes 
end OutsideInterface