
define VDD ( N__2 ) 
parameters  Vdd=1.8 
V_Source:SRC1  N__2 0 Type="V_DC" Vdc=Vdd SaveCurrent=1 
end VDD

Lmin=0.18um
Rf=300
Lpmos=0.5um
Cl=0.75pF
Vovin=0.5
Rl=300
WoLcasc=WoLin
WoLin=20
gm2=1/(Z0*(1+gm1*Rltot)-Rf)
Mult_casc=int(I1/Icascmeas)
GBWest=gm1/(2*pi*Cl)
I1=I1meas*Mult_in
Mult_in=int(gm1/gm1meas)
Lmirr=Lmin
WoLmirr=20
Vovmirr=0.3
Z0=50
Mult_mirr=int((I2+Irf)/Imirrmeas)
Icascmeas=579e-6
d=0.2
gm1=0.03
hdif=0.26e-6
Iloadmeas=412e-6
gm2meas=0.000706887
Ipullmeas=422u
I2meas=131e-6
Lpull=0.5um
WoLpull=60
Vovpull=0.5
I1meas=588e-6
gm1meas=0.00162425
Irf=(0.5+Vovin-(Vout-(0.5+Vovbuff)))/Rf
Imirrmeas=253e-6
Mult_buffer=int(gm2/gm2meas)
I2=I2meas*Mult_buffer
Roload=Roloadmeas/Mult_load
WoLbuffer=10
Lbuffer=Lmin
Vovbuff=0.3
Vovpmos=0.5
WoLpmos=60
Mult_load=int(Iload/Iloadmeas)
Mult_pull=int(Irf/Ipullmeas)
Rltot=1/(1/Rl+1/Roload)
Vout=1.2
Vdd=1.8
Ires=(Vdd-Vout)/Rl
Iload=I1-Ires
Roloadmeas=1/(6.40735e-05)


VDD:Vdd14  vdd Vdd=1.8 V 
"p_18_mm":Mload  V_s3_p1 loadbias vdd vdd Length=Lpmos Width=WoLpmos*Lpmos Ad=2*hdif*WoLpmos*Lpmos As=2*hdif*WoLpmos*Lpmos Pd=4*hdif+2*WoLpmos*Lpmos Ps=4*hdif+2*WoLpmos*Lpmos Mode=1 Noise=yes _M=int(Mult_load) 
"n_18_mm":Min  V_s1_p2 V_s1_p1 0 0 Length=Lmin Width=WoLin*Lmin Ad=2*hdif*WoLin*Lmin As=2*hdif*WoLin*Lmin Pd=4*hdif+2*WoLin*Lmin Ps=4*hdif+2*WoLin*Lmin Mode=1 Noise=yes _M=Mult_in 
"n_18_mm":Mcasc  V_s4_p2 vdd V_s4_p1 0 Length=Lmin Width=WoLcasc*Lmin Ad=2*hdif*WoLcasc*Lmin As=2*hdif*WoLcasc*Lmin Pd=4*hdif+2*WoLcasc*Lmin Ps=4*hdif+2*WoLcasc*Lmin Mode=1 Noise=yes _M=Mult_casc 
"p_18_mm":Mloadbias  loadbias loadbias vdd vdd Length=Lpmos Width=WoLpmos*Lpmos Mode=1 Noise=yes _M=1 
"n_18_mm":Mbuffer  vdd V_s2_p1 V_s2_p2 0 Length=Lbuffer Width=WoLbuffer*Lbuffer Ad=2*hdif*WoLbuffer*Lbuffer As=2*hdif*WoLbuffer*Lbuffer Pd=4*hdif+2*WoLbuffer*Lbuffer Ps=4*hdif+2*WoLbuffer*Lbuffer Mode=1 Noise=yes _M=Mult_buffer 
"n_18_mm":Mmirr  V_s5_p1 mirrbias 0 0 Length=Lmirr Width=WoLmirr*Lmirr Ad=2*hdif*WoLmirr*Lmin As=2*hdif*WoLmirr*Lmin Pd=4*hdif+2*WoLmirr*Lmin Ps=4*hdif+2*WoLmirr*Lmin Mode=1 Noise=yes _M=Mult_mirr 
"p_18_mm":Mpull  V_s1_p1 pullbias vdd vdd Length=Lpull Width=WoLpull*Lpull Ad=2*hdif*WoLpull*Lpull As=2*hdif*WoLpull*Lpull Pd=4*hdif+2*WoLpull*Lpull Ps=4*hdif+2*WoLpull*Lpull Mode=1 Noise=yes _M=Mult_pull 
"n_18_mm":Mmirrbias  mirrbias mirrbias 0 0 Length=Lmirr Width=WoLmirr*Lmirr Mode=1 Noise=yes _M=1 
"p_18_mm":Mpullbias  pullbias pullbias vdd vdd Length=Lpull Width=WoLpull*Lpull Mode=1 Noise=yes _M=1 

I_Source:SRC4  loadbias 0 Type="I_DC" Idc=Iloadmeas 
I_Source:SRC23  pullbias 0 Type="I_DC" Idc=Ipullmeas 
I_Source:SRC3  vdd mirrbias Type="I_DC" Idc=Imirrmeas 


R:R1  N__71 V_st_p1 R=Rf Noise=yes 
R:R2  vdd V_s6_p1 R=Rl Noise=yes 
R:Rs  N__57 ref R=50 Ohm Noise=yes 

C:C1  N__74 0 C=0.75 pF 

Short:INPUT_BLOCK  N__78 N__57 Mode=1 

Short:I_TOTAL_p1  N__78 V_st_p1 Mode=0 SaveCurrent=yes 
Short:I_TOTAL_p2  N__74 V_st_p2 Mode=0 SaveCurrent=yes 
Short:I_IN_p1  V_st_p1 V_s1_p1 Mode=0 SaveCurrent=yes 
Short:I_IN_p2  N__75 V_s1_p2 Mode=0 SaveCurrent=yes 
Short:I_FB_p1  V_st_p2 V_s2_p1 Mode=0 SaveCurrent=yes 
Short:I_FB_p2  N__71 V_s2_p2 Mode=0 SaveCurrent=yes 
Short:I_PMOS_p1  V_st_p2 V_s3_p1 Mode=0 SaveCurrent=yes 
Short:I_CASC_p1  N__75 V_s4_p1 Mode=0 SaveCurrent=yes 
Short:I_CASC_p2  V_st_p2 V_s4_p2 Mode=0 SaveCurrent=yes 
Short:I_BIAS_p1  N__71 V_s5_p1 Mode=0 SaveCurrent=yes 
Short:I_RL_p1  V_st_p2 V_s6_p1 Mode=0 SaveCurrent=yes 

MS:MSsource ref 0 fmin=10e6 fmax=1000e6 gridtype="odd" amp=0.001

DCA:DCA1 port="2" numberOfRealisations=60 display="res" useBLA=no outOfBandFactor=2

#define TT TT
#ifndef inc_Z__ADS_umc_mmrfcmos18_circuit_models_umc18config_net
#define inc_Z__ADS_umc_mmrfcmos18_circuit_models_umc18config_net inc_Z__ADS_umc_mmrfcmos18_circuit_models_umc18config_net
#include "Z:\ADS\umc_mmrfcmos18\circuit\models\umc18config.net"
#endif
#undef TT
