

"p_33_mm":Mp1  N__42 N__43 N__26 N__26 Length=1 um Width=Wp Mode=1 Noise=yes 
"n_33_mm":Mn1  N__40 N__16 0 0 Length=1 um Width=Wn Mode=1 Noise=yes _M=2 
"n_33_mm":Mn2  N__42 N__16 0 0 Length=1 um Width=Wn Mode=1 Noise=yes _M=2 
"n_33_mm":Mn3  N__41 N__23 N__40 0 Length=1 um Width=Wn Mode=1 Noise=yes 
"n_33_mm":Mn4  N__2 N__23 N__42 0 Length=1 um Width=Wn Mode=1 Noise=yes 
"p_33_mm":Mp2  N__19 N__27 N__24 N__25 Length=1 um Width=Wp Mode=1 Noise=yes 
"p_33_mm":Mp3  N__24 N__33 N__25 N__25 Length=1 um Width=Wp Mode=1 Noise=yes 
"p_33_mm":Mp4  N__31 N__33 N__25 N__25 Length=1 um Width=Wp Mode=1 Noise=yes 
"p_33_mm":Mp5  N__33 N__27 N__31 N__25 Length=1 um Width=Wp Mode=1 Noise=yes 
V_Source:SRC1  N__25 0 Type="V_DC" Vdc=3.3 V SaveCurrent=1 
I_Source:SRC9  0 N__16 Type="I_DC" Idc=I1 
"n_33_mm":Mn8  N__16 N__16 0 0 Length=1 um Width=Wn Mode=1 Noise=yes 
"p_33_mm":Mp6  N__27 N__27 N__1 N__25 Length=1 um Width=Wp Mode=1 Noise=yes 
I_Source:SRC4  N__27 0 Type="I_DC" Idc=I1 
V_Source:SRC5  N__25 N__1 Type="V_DC" Vdc=0.3 V SaveCurrent=1 
"p_33_mm":Mp7  N__40 N__44 N__26 N__26 Length=1 um Width=Wp Mode=1 Noise=yes 
"p_33_mm":Mp8  N__26 N__18 N__7 N__7 Length=1 um Width=Wp Mode=1 Noise=yes _M=2 
"p_33_mm":Mp9  N__18 N__18 N__7 N__7 Length=1 um Width=Wp Mode=1 Noise=yes 
I_Source:SRC6  N__18 0 Type="I_DC" Idc=I1 
V_Source:SRC3  N__30 0 Type="V_DC" Vdc=0.3 V SaveCurrent=1 
"p_33_mm":Mp10  N__48 N__49 N__28 N__28 Length=1 um Width=Wp Mode=1 Noise=yes _M=fac 
C:C1  N__49 N__48 C=3 pF 
"n_33_mm":Mn6  N__48 N__13 0 0 Length=1 um Width=Wn Mode=1 Noise=yes _M=fac 
I_Source:SRC7  0 N__13 Type="I_DC" Idc=fac*I1 
"n_33_mm":Mn7  N__13 N__13 0 0 Length=1 um Width=Wn Mode=1 Noise=yes _M=fac 
V_Source:SRC8  N__38 0 Type="V_DC" Vdc=1.65 V SaveCurrent=1 
#define TT TT
#ifndef inc_Z__ADS_umc_mmrfcmos18_circuit_models_umc18config_net
#define inc_Z__ADS_umc_mmrfcmos18_circuit_models_umc18config_net inc_Z__ADS_umc_mmrfcmos18_circuit_models_umc18config_net
#include "Z:\ADS\umc_mmrfcmos18\circuit\models\umc18config.net"
#endif
#undef TT

I1=50uA
I_Source:SRC2  0 N__23 Type="I_DC" Idc=I1 
"n_33_mm":Mn5  N__23 N__23 N__30 0 Length=1 um Width=Wn Mode=1 Noise=yes 

Wn=10u
Wp=30u

fac=12
C:C2  N__46 0 C=10 pF 
R:R1  amp out R=40 kOhm Noise=yes 
R:R2  N__6 amp R=10 kOhm Noise=yes 
V_Source:SRC11  sgnd 0 Type="V_DC" Vdc=1.65 V SaveCurrent=1 
V_Source:SRC12  N__7 0 Type="V_DC" Vdc=3.3 V SaveCurrent=1 
V_Source:SRC13  N__28 0 Type="V_DC" Vdc=3.3 V SaveCurrent=1 
Short:I_MIRR_p1p  N__11 N__33 Mode=0 SaveCurrent=yes 
Short:I_MIRR_p1m  N__39 N__19 Mode=0 SaveCurrent=yes 
Short:I_IN_p2p  N__11 N__41 Mode=0 SaveCurrent=yes 
Short:I_IN_p2m  N__39 N__2 Mode=0 SaveCurrent=yes 
Short:I_IN_p1m  amp N__44 Mode=0 SaveCurrent=yes 
Short:I_IN_p1p  N__38 N__43 Mode=0 SaveCurrent=yes 
Short:I_OUT_p1  N__39 N__49 Mode=0 SaveCurrent=yes 
Short:I_OUT_p2  out N__48 Mode=0 SaveCurrent=yes 
Short:I_TOTAL_p1  MS_node N__6 Mode=0 SaveCurrent=yes 
Short:I_TOTAL_p2  N__46 out Mode=0 SaveCurrent=yes 
